databrary • databraryr
…
list_volume_funding()
#> # A tibble: 2 × 4
#>   vol_id funder_id funder_name                                             award
#>    <dbl>     <int> <chr>                                                   <chr>
#> 1      1 100000001 National Science Foundation (NSF)                       BCS-…
#> 2      1 100000071 National Institute of Child Health and Human Developme… U01-…

This can also be “vectorized.”

purrr::map(c(1:20), list_volume_funding) |>
  purrr::list_rbind()
#> # A tibble: 25 × 4
#>    vol_id funder_id funder_name                                            award
#>     <int>     <int> <chr>                                                  <chr>
#>  1      1 100000001 National Science Foundation (NSF)                      BCS-…
#>  2      1 100000071 National Institute of Child Health and Human Developm… U01-…
#>  3      2 100000001 National Science Foundation (NSF)                      BCS-…
#>  4      3        NA NA                                                     NA   
#>  5      4 100000071 National Institute of Child Health and Human Developm… R37-…
#>  6      5 100000071 National Institute of Child Health and Human Developm… R37-…
#>  7      6        NA NA                                                     NA   
#>  8      7 100000071 National Institute of Child Health and Human Developm… R37-…
#>  9      8 100000001 National Science Foundation (NSF)                      0721…
#> 10      9 100000071 National Institute of Child Health and Human Developm… R37-…
#> # ℹ 15 more rows
…
